{
    "application": {
        "id": "",
        "title": "com.jp.ProductsXsApp",
        "description": "Produtos (Hana XS)",
        "type": "SAP_UI5_Component",
        "componentUrl": "/",
        "appUrl": "#ProductsXsApp-Display",
        "navigationComponentName": "com.jp",
        "intentSemanticObject": "ProductsXsApp",
        "intentAction": "Display",
        "html5ApplicationName": "productsxsapp",
        "HCPParentApplicationName": ""
    },
    "assignment": {
        "groups": [
            "40027e80-7d06-4761-aee3-07ca45ffdecb"
        ],
        "contentPackages": [
            "510ceb24-4098-4e97-9ce7-e4f61722c690"
        ],
        "categories": []
    },
    "tile": {
        "type": "DynamicTile",
        "title": "Produtos",
        "subtitle": "Hana XS",
        "searchKeywords": "Produtos,Hana XS",
        "displayIconUrl": "sap-icon://product",
        "displayInfoText": "",
        "size": "1x1",
        "serviceURL": "/sap/fiori/productsxsapp/MDCTrial/public/jansen/OrdersXS/services/products.xsodata/Products/$count",
        "refreshInterval": 10,
        "displayNumberUnit": "Itens"
    }
}